…
#GroupBy Age and Gender
age_gender_group = group_by(na.omit(fb_users), age, gender)
fb_users.age_gender = summarise(age_gender_group,
                                mean_friend_count = mean(friend_count),
                                median_friend_count = median(friend_count),
                                n = n())
fb_users.age_gender

## # A tibble: 202 x 5
## # Groups:   age [?]
##      age gender mean_friend_count median_friend_count     n
##    <int> <fctr>             <dbl>               <dbl> <int>
##  1    13 female          259.1606               148.0   193
##  2    13   male          102.1340                55.0   291
##  3    14 female          362.4286               224.0   847
##  4    14   male          164.1456                92.5  1078
##  5    15 female          538.6813               276.0  1139
##  6    15   male          200.6658               106.5  1478
##  7    16 female          519.5145               258.5  1238
##  8    16   male          239.6748               136.0  1848
##  9    17 female          538.9943               245.5  1236
## 10    17   male          236.4924               125.0  2045
## # ... with 192 more rows
…
